<svg xmlns="http://www.w3.org/2000/svg" width="2880" height="3072" viewBox="0 0 2880 3072">
  <metadata><?xpacket begin="﻿" id="W5M0MpCehiHzreSzNTczkc9d"?>
<x:xmpmeta xmlns:x="adobe:ns:meta/" x:xmptk="Adobe XMP Core 5.6-c140 79.160451, 2017/05/06-01:08:21        ">
   <rdf:RDF xmlns:rdf="http://www.w3.org/1999/02/22-rdf-syntax-ns#">
      <rdf:Description rdf:about=""/>
   </rdf:RDF>
</x:xmpmeta>
                                                                                                    
                                                                                                    
                                                                                                    
                                                                                                    
                                                                                                    
                                                                                                    
                                                                                                    
                                                                                                    
                                                                                                    
                                                                                                    
                                                                                                    
                                                                                                    
                                                                                                    
                                                                                                    
                                                                                                    
                                                                                                    
                                                                                                    
                                                                                                    
                                                                                                    
                                                                                                    
                           
<?xpacket end="w"?></metadata>
<defs>
    <style>
      .cls-1 {
        fill: #FFF;
        fill-rule: evenodd;
      }
    </style>
  </defs>
  <path class="cls-1" d="M2790.29,398.826C2332.5,61.632,1660.94-216.416,971.532-232.821a2591.586,2591.586,0,0,0-313.4,11.206c-183,17.865-794.063,85.914-1267.837,543.681-139.375,134.668-381.661,368.769-404.034,724.9-3.62,57.58-15.07,334.48,152.479,578.54,106.8,155.57,173.434,133.34,237.623,257.9,129.688,251.64-94.215,435.7-27.864,710.96,73.433,304.65,461.571,551.69,794.139,564.6,338.058,13.11,429.794-223.02,752.343-167.29,272.35,47.06,272.23,226.69,529.43,264.87,253.07,37.56,324.54-125.76,822-299.72,484.14-169.31,589.42-75.1,710.55-223.05,191.32-233.7-45.65-500.08,125.39-975.84,115.45-321.14,266.77-320.35,292.57-501.86C3410.03,1009.13,3176.06,682.982,2790.29,398.826Z" transform="translate(0 -190)"/>
</svg>
